// -*- mode: Go;-*-
module gitlab.com/esr/reposurgeon

require (
	github.com/anmitsu/go-shlex v0.0.0-20200514113438-38f4b401e2be
	github.com/chzyer/readline v0.0.0-20180603132655-2972be24d48e
	github.com/cosiner/argv v0.0.1 // indirect
	github.com/emirpasic/gods v1.12.0
	github.com/flynn/go-shlex v0.0.0-20150515145356-3f9db97f8568 // indirect
	github.com/go-delve/delve v1.4.0 // indirect
	github.com/ianbruene/go-difflib v1.2.0
	github.com/kballard/go-shellquote v0.0.0-20180428030007-95032a82bc51
	github.com/konsorten/go-windows-terminal-sequences v1.0.2 // indirect
	github.com/mattn/go-colorable v0.1.6 // indirect
	github.com/mattn/go-runewidth v0.0.8 // indirect
	github.com/orcaman/concurrent-map v0.0.0-20190826125027-8c72a8bb44f6
	github.com/peterh/liner v1.2.0 // indirect
	github.com/pkg/term v1.1.0 // indirect
	github.com/sirupsen/logrus v1.4.2 // indirect
	github.com/spf13/cobra v0.0.6 // indirect
	github.com/spf13/pflag v1.0.5 // indirect
	github.com/termie/go-shutil v0.0.0-20140729215957-bcacb06fecae
	github.com/xo/terminfo v0.0.0-20210125001918-ca9a967f8778
	gitlab.com/esr/fqme v0.1.0
	gitlab.com/ianbruene/kommandant v0.6.2
	go.starlark.net v0.0.0-20200306205701-8dd3e2ee1dd5 // indirect
	golang.org/x/arch v0.0.0-20200312215426-ff8b605520f4 // indirect
	golang.org/x/crypto v0.0.0-20210322153248-0c34fe9e7dc2
	golang.org/x/sys v0.0.0-20210403161142-5e06dd20ab57 // indirect
	golang.org/x/term v0.0.0-20210406210042-72f3dc4e9b72 // indirect
	golang.org/x/text v0.3.6
	gopkg.in/yaml.v2 v2.2.8 // indirect
)

go 1.13
